<?xml version="1.0" encoding="UTF-8" standalone="no"?>
<!-- Created with Inkscape (http://www.inkscape.org/) -->

<svg
   width="20.824697mm"
   height="33.370094mm"
   viewBox="0 0 20.824698 33.370094"
   version="1.1"
   id="svg1584"
   sodipodi:docname="tws_bud_r.svg"
   inkscape:version="1.1.1 (3bf5ae0d25, 2021-09-20)"
   xmlns:inkscape="http://www.inkscape.org/namespaces/inkscape"
   xmlns:sodipodi="http://sodipodi.sourceforge.net/DTD/sodipodi-0.dtd"
   xmlns="http://www.w3.org/2000/svg"
   xmlns:svg="http://www.w3.org/2000/svg">
  <sodipodi:namedview
     id="namedview1586"
     pagecolor="#ffffff"
     bordercolor="#666666"
     borderopacity="1.0"
     inkscape:pageshadow="2"
     inkscape:pageopacity="0.0"
     inkscape:pagecheckerboard="0"
     inkscape:document-units="mm"
     showgrid="false"
     showguides="true"
     inkscape:guide-bbox="true"
     fit-margin-top="5"
     fit-margin-left="5"
     fit-margin-right="5"
     fit-margin-bottom="5"
     inkscape:zoom="7.2407734"
     inkscape:cx="2.8311893"
     inkscape:cy="77.408858"
     inkscape:window-width="1920"
     inkscape:window-height="1035"
     inkscape:window-x="0"
     inkscape:window-y="45"
     inkscape:window-maximized="1"
     inkscape:current-layer="layer1"
     inkscape:snap-nodes="false">
    <sodipodi:guide
       position="60.230277,-77.001526"
       orientation="0,-1"
       id="guide12345" />
    <sodipodi:guide
       position="48.368846,-82.602765"
       orientation="1,0"
       id="guide12613" />
    <sodipodi:guide
       position="66.270257,-85.540793"
       orientation="1,0"
       id="guide12653" />
    <sodipodi:guide
       position="59.029537,-82.554635"
       orientation="0,-1"
       id="guide13329" />
  </sodipodi:namedview>
  <defs
     id="defs1581" />
  <g
     inkscape:label="Layer 1"
     inkscape:groupmode="layer"
     id="layer1"
     transform="translate(-54.112633,-52.186932)">
    <path
       style="fill:none;fill-rule:evenodd;stroke:#000000;stroke-width:2;stroke-linecap:butt;stroke-linejoin:miter;stroke-miterlimit:4;stroke-dasharray:none;stroke-opacity:1"
       d="m 62.994889,76.803636 c 0.244298,3.556234 -2.977704,4.111332 -2.879953,-0.991401 l 0.05475,-12.382282 c 0.0097,-2.189912 1.289342,-5.281881 4.473037,-5.242683 2.522448,0.03106 4.251319,0.718798 4.261175,2.097025 l 0.03339,4.669439 c 0.01544,2.158509 -4.351931,3.889198 -5.490653,3.126882 -1.023556,-0.685216 -0.439063,8.854415 -0.439063,8.854415"
       id="path1690"
       sodipodi:nodetypes="ccsssssc" />
  </g>
</svg>
